docs/aquamonitor_soc/aquamonitor_soc.vcd
$date
	Mon May 18 19:11:43 2026
$end
$version
	Icarus Verilog
$end
$timescale
	1ps
$end
$scope module tb_aquamonitor_soc $end
$var wire 1 ! spi_miso $end
$var wire 1 " sample_en $end
$var wire 3 # mux_sel [2:0] $end
$var wire 1 $ led_ready $end
$var wire 1 % eoc $end
$var wire 4 & dac_sw [3:0] $end
$var reg 3 ' analog_in [2:0] $end
$var reg 1 ( clk_8mhz $end
$var reg 1 ) comparator_out $end
$var reg 1 * rst_n $end
$var reg 1 + spi_cs_n $end
$var reg 1 , spi_mosi $end
$var reg 16 - spi_rx [15:0] $end
$var reg 1 . spi_sclk $end
$var integer 32 / current_input_mv [31:0] $end
$var integer 32 0 dac_mv [31:0] $end
$var integer 32 1 fail_count [31:0] $end
$var integer 32 2 pass_count [31:0] $end
$scope module dut $end
$var wire 3 3 analog_in [2:0] $end
$var wire 2 4 ch_sel [1:0] $end
$var wire 1 ( clk_8mhz $end
$var wire 1 ) comparator_out $end
$var wire 4 5 dac_sw [3:0] $end
$var wire 1 6 mux_en $end
$var wire 1 * rst_n $end
$var wire 1 + spi_cs_n $end
$var wire 1 , spi_mosi $end
$var wire 1 . spi_sclk $end
$var wire 1 7 spi_valid $end
$var wire 16 8 spi_rx_data [15:0] $end
$var wire 1 ! spi_miso $end
$var wire 4 9 sar_result [3:0] $end
$var wire 4 : sar_dac_code [3:0] $end
$var wire 1 " sample_en $end
$var wire 3 ; mux_sel [2:0] $end
$var wire 1 % eoc $end
$var wire 4 < dac_vout_ctrl [3:0] $end
$var wire 32 = dac_nominal_mv [31:0] $end
$var reg 2 > ch_counter [1:0] $end
$var reg 1 ? clk_1mhz $end
$var reg 3 @ clk_div_cnt [2:0] $end
$var reg 1 A conv_running $end
$var reg 1 $ led_ready $end
$var reg 1 B sar_start $end
$var reg 16 C spi_tx_data [15:0] $end
$var reg 8 D status_reg [7:0] $end
$scope module u_dac $end
$var wire 4 E vout_ctrl [3:0] $end
$var wire 4 F code [3:0] $end
$var parameter 32 G LSB_MV $end
$var integer 32 H nominal_mv [31:0] $end
$upscope $end
$scope module u_mux $end
$var wire 2 I ch_sel [1:0] $end
$var wire 1 6 en $end
$var reg 3 J mux_sel [2:0] $end
$upscope $end
$scope module u_sar_fsm $end
$var wire 1 ? clk $end
$var wire 1 ) comparator_out $end
$var wire 1 * rst_n $end
$var wire 1 B start $end
$var parameter 4 K BIT0 $end
$var parameter 4 L BIT1 $end
$var parameter 4 M BIT2 $end
$var parameter 4 N BIT3 $end
$var parameter 4 O CH_SEL $end
$var parameter 4 P DONE $end
$var parameter 4 Q IDLE $end
$var parameter 4 R SAMPLE $end
$var reg 4 S dac_code [3:0] $end
$var reg 1 % eoc $end
$var reg 4 T next_state [3:0] $end
$var reg 4 U result [3:0] $end
$var reg 1 " sample_en $end
$var reg 4 V state [3:0] $end
$var reg 4 W trial_reg [3:0] $end
$upscope $end
$scope module u_spi $end
$var wire 1 + cs_n $end
$var wire 16 X data_in [15:0] $end
$var wire 1 , mosi $end
$var wire 1 . sclk $end
$var wire 1 ! miso $end
$var reg 5 Y bit_cnt [4:0] $end
$var reg 16 Z data_out [15:0] $end
$var reg 16 [ shift_rx [15:0] $end
$var reg 16 \ shift_tx [15:0] $end
$var reg 1 7 valid $end
$upscope $end
$upscope $end
$scope begin test_loop $end
$var integer 32 ] i [31:0] $end
$upscope $end
$scope task spi_transfer $end
$upscope $end
$scope task wait_for_eoc $end
$upscope $end
$upscope $end
$enddefinitions $end
$comment Show the parameter values. $end
$dumpall
b10 R
b0 Q
b111 P
b1 O
b11 N
b100 M
b101 L
b110 K
b1110001 G
$end
#0
$dumpvars
bx ]
bx \
b0 [
bx Z
b0 Y
b0 X
b0 W
b0 V
b0 U
b0 T
b0 S
b0 J
b0 I
b0 H
b0 F
b0 E
b0 D
b0 C
0B
0A
b0 @
0?
b0 >
b0 =
b0 <
b0 ;
b0 :
b0 9
bx 8
07
06
b0 5
b0 4
b0 3
b0 2
b0 1
b0 0
b0 /
0.
bx -
0,
1+
0*
0)
0(
b0 '
b0 &
0%
0$
b0 #
0"
z!
$end
#62500
1(
#125000
0(
#187500
1(
#250000
0(
#312500
1(
#375000
0(
#437500
1(
#500000
0(
#562500
1(
#625000
0(
#687500
1(
#750000
0(
#812500
1(
#875000
0(
#937500
1(
#1000000
0(
#1062500
1(
#1125000
0(
#1187500
b1 @
1*
1(
#1250000
0(
#1312500
b10 @
1(
#1375000
0(
#1437500
b11 @
1(
#1500000
0(
#1562500
b1 #
b1 ;
b1 J
b1 T
16
1A
1B
b0 @
1?
1(
#1625000
0(
#1687500
b1 @
1(
#1750000
0(
#1812500
b10 @
b0 ]
1(
#1875000
0(
#1937500
b11 @
1(
#2000000
0(
#2062500
b0 @
0?
1(
#2125000
0(
#2187500
b1 @
1(
#2250000
0(
#2312500
b10 @
1(
#2375000
0(
#2437500
b11 @
1(
#2500000
0(
#2562500
b10 T
b1 V
0B
b0 @
1?
1(
#2625000
0(
#2687500
b1 @
1(
#2750000
0(
#2812500
b10 @
1(
#2875000
0(
#2937500
b11 @
1(
#3000000
0(
#3062500
b0 @
0?
1(
#3125000
0(
#3187500
b1 @
1(
#3250000
0(
#3312500
b10 @
1(
#3375000
0(
#3437500
b11 @
1(
#3500000
0(
#3562500
b1110000100 0
b1110000100 =
b1110000100 H
b1000 &
b1000 5
b1000 <
b1000 E
b1000 :
b1000 F
b1000 S
1"
b11 T
b10 V
b0 @
1?
1(
#3625000
0(
#3687500
b1 @
1(
#3750000
0(
#3812500
b10 @
1(
#3875000
0(
#3937500
b11 @
1(
#4000000
0(
#4062500
b0 @
0?
1(
#4125000
0(
#4187500
b1 @
1(
#4250000
0(
#4312500
b10 @
1(
#4375000
0(
#4437500
b11 @
1(
#4500000
0(
#4562500
b100 T
0"
b11 V
b1000 W
b0 @
1?
1(
#4625000
0(
#4687500
b1 @
1(
#4750000
0(
#4812500
b10 @
1(
#4875000
0(
#4937500
b11 @
1(
#5000000
0(
#5062500
b0 @
0?
1(
#5125000
0(
#5187500
b1 @
1(
#5250000
0(
#5312500
b10 @
1(
#5375000
0(
#5437500
b11 @
1(
#5500000
0(
#5562500
b111000010 0
b111000010 =
b111000010 H
b100 &
b100 5
b100 <
b100 E
b100 :
b100 F
b100 S
b101 T
b100 W
b100 V
b0 @
1?
1(
#5625000
0(
#5687500
b1 @
1(
#5750000
0(
#5812500
b10 @
1(
#5875000
0(
#5937500
b11 @
1(
#6000000
0(
#6062500
b0 @
0?
1(
#6125000
0(
#6187500
b1 @
1(
#6250000
0(
#6312500
b10 @
1(
#6375000
0(
#6437500
b11 @
1(
#6500000
0(
#6562500
b11100001 0
b11100001 =
b11100001 H
b110 T
b10 &
b10 5
b10 <
b10 E
b10 :
b10 F
b10 S
b101 V
b10 W
b0 @
1?
1(
#6625000
0(
#6687500
b1 @
1(
#6750000
0(
#6812500
b10 @
1(
#6875000
0(
#6937500
b11 @
1(
#7000000
0(
#7062500
b0 @
0?
1(
#7125000
0(
#7187500
b1 @
1(
#7250000
0(
#7312500
b10 @
1(
#7375000
0(
#7437500
b11 @
1(
#7500000
0(
#7562500
b1110000 0
b1110000 =
b1110000 H
b1 &
b1 5
b1 <
b1 E
b1 :
b1 F
b1 S
b111 T
b1 W
b110 V
b0 @
1?
1(
#7625000
0(
#7687500
b1 @
1(
#7750000
0(
#7812500
b10 @
1(
#7875000
0(
#7937500
b11 @
1(
#8000000
0(
#8062500
b0 @
0?
1(
#8125000
0(
#8187500
b1 @
1(
#8250000
0(
#8312500
b10 @
1(
#8375000
0(
#8437500
b11 @
1(
#8500000
0(
#8562500
b10000000 C
b10000000 X
b10000000 D
b0 0
b0 =
b0 H
b0 T
1%
b0 &
b0 5
b0 <
b0 E
b0 :
b0 F
b0 S
b111 V
b0 W
b0 @
1?
1(
#8625000
0(
#8687500
b1 @
1(
#8750000
0(
#8812500
b10 @
1(
#8875000
0(
#8937500
b11 @
1(
#9000000
0(
#9062500
b0 @
0?
x!
0+
1(
#9125000
0(
#9187500
b1 @
1(
#9250000
0(
#9312500
b10 @
1(
#9375000
0(
#9437500
b11 @
1(
#9500000
0(
#9562500
b0 #
b0 ;
b0 J
b1000000000001 C
b1000000000001 X
b1 D
0%
1$
06
0A
b1 4
b1 I
b1 >
b0 V
b0 @
1?
1(
#9625000
0(
#9687500
b1 @
1(
#9750000
0(
#9812500
b10 @
1(
#9875000
0(
#9937500
b11 @
1(
#10000000
0(
#10062500
b0 @
0?
b1 Y
1(
1.
#10125000
0(
#10187500
b1 @
1(
#10250000
0(
#10312500
b10 @
1(
#10375000
0(
#10437500
b11 @
1(
#10500000
0(
#10562500
b10 #
b10 ;
b10 J
b1 T
16
1A
1B
0$
b0 @
1?
bx0 \
1(
0.
#10625000
0(
#10687500
b1 @
1(
#10750000
0(
#10812500
b10 @
1(
#10875000
0(
#10937500
b11 @
1(
#11000000
0(
#11062500
b0 @
0?
1(
#11125000
0(
#11187500
b1 @
1(
#11250000
0(
#11312500
b10 @
1(
#11375000
0(
#11437500
b11 @
1(
#11500000
0(
#11562500
b10 T
0B
b1 V
b0 @
1?
b10 Y
1(
1.
#11625000
0(
#11687500
b1 @
1(
#11750000
0(
#11812500
b10 @
1(
#11875000
0(
#11937500
b11 @
1(
#12000000
0(
#12062500
b0 @
0?
bx00 \
1(
0.
#12125000
0(
#12187500
b1 @
1(
#12250000
0(
#12312500
b10 @
1(
#12375000
0(
#12437500
b11 @
1(
#12500000
0(
#12562500
b1110000100 0
b1110000100 =
b1110000100 H
b1000 &
b1000 5
b1000 <
b1000 E
b1000 :
b1000 F
b1000 S
1"
b11 T
b10 V
b0 @
1?
1(
#12625000
0(
#12687500
b1 @
1(
#12750000
0(
#12812500
b10 @
1(
#12875000
0(
#12937500
b11 @
1(
#13000000
0(
#13062500
b0 @
0?
b11 Y
1(
1.
#13125000
0(
#13187500
b1 @
1(
#13250000
0(
#13312500
b10 @
1(
#13375000
0(
#13437500
b11 @
1(
#13500000
0(
#13562500
0"
b100 T
b1000 W
b11 V
b0 @
1?
bx000 \
1(
0.
#13625000
0(
#13687500
b1 @
1(
#13750000
0(
#13812500
b10 @
1(
#13875000
0(
#13937500
b11 @
1(
#14000000
0(
#14062500
b0 @
0?
1(
#14125000
0(
#14187500
b1 @
1(
#14250000
0(
#14312500
b10 @
1(
#14375000
0(
#14437500
b11 @
1(
#14500000
0(
#14562500
b111000010 0
b111000010 =
b111000010 H
b101 T
b100 &
b100 5
b100 <
b100 E
b100 :
b100 F
b100 S
b100 V
b100 W
b0 @
1?
b100 Y
1(
1.
#14625000
0(
#14687500
b1 @
1(
#14750000
0(
#14812500
b10 @
1(
#14875000
0(
#14937500
b11 @
1(
#15000000
0(
#15062500
b0 @
0?
bx0000 \
1(
0.
#15125000
0(
#15187500
b1 @
1(
#15250000
0(
#15312500
b10 @
1(
#15375000
0(
#15437500
b11 @
1(
#15500000
0(
#15562500
b11100001 0
b11100001 =
b11100001 H
b10 &
b10 5
b10 <
b10 E
b10 :
b10 F
b10 S
b110 T
b10 W
b101 V
b0 @
1?
1(
#15625000
0(
#15687500
b1 @
1(
#15750000
0(
#15812500
b10 @
1(
#15875000
0(
#15937500
b11 @
1(
#16000000
0(
#16062500
b0 @
0?
b101 Y
1(
1.
#16125000
0(
#16187500
b1 @
1(
#16250000
0(
#16312500
b10 @
1(
#16375000
0(
#16437500
b11 @
1(
#16500000
0(
#16562500
b1110000 0
b1110000 =
b1110000 H
b111 T
b1 &
b1 5
b1 <
b1 E
b1 :
b1 F
b1 S
b110 V
b1 W
b0 @
1?
bx00000 \
1(
0.
#16625000
0(
#16687500
b1 @
1(
#16750000
0(
#16812500
b10 @
1(
#16875000
0(
#16937500
b11 @
1(
#17000000
0(
#17062500
b0 @
0?
1(
#17125000
0(
#17187500
b1 @
1(
#17250000
0(
#17312500
b10 @
1(
#17375000
0(
#17437500
b11 @
1(
#17500000
0(
#17562500
b1000010000001 C
b1000010000001 X
b10000001 D
b0 0
b0 =
b0 H
1%
b0 &
b0 5
b0 <
b0 E
b0 :
b0 F
b0 S
b0 T
b0 W
b111 V
b0 @
1?
b110 Y
1(
1.
#17625000
0(
#17687500
b1 @
1(
#17750000
0(
#17812500
b10 @
1(
#17875000
0(
#17937500
b11 @
1(
#18000000
0(
#18062500
b0 @
0?
bx000000 \
1(
0.
#18125000
0(
#18187500
b1 @
1(
#18250000
0(
#18312500
b10 @
1(
#18375000
0(
#18437500
b11 @
1(
#18500000
0(
#18562500
0%
b0 #
b0 ;
b0 J
b10000000000010 C
b10000000000010 X
b10 D
b0 V
06
0A
b10 4
b10 I
b10 >
1$
b0 @
1?
1(
#18625000
0(
#18687500
b1 @
1(
#18750000
0(
#18812500
b10 @
1(
#18875000
0(
#18937500
b11 @
1(
#19000000
0(
#19062500
b0 @
0?
b111 Y
1(
1.
#19125000
0(
#19187500
b1 @
1(
#19250000
0(
#19312500
b10 @
1(
#19375000
0(
#19437500
b11 @
1(
#19500000
0(
#19562500
b100 #
b100 ;
b100 J
b1 T
0$
16
1A
1B
b0 @
1?
bx0000000 \
1(
0.
#19625000
0(
#19687500
b1 @
1(
#19750000
0(
#19812500
b10 @
1(
#19875000
0(
#19937500
b11 @
1(
#20000000
0(
#20062500
b0 @
0?
1(
#20125000
0(
#20187500
b1 @
1(
#20250000
0(
#20312500
b10 @
1(
#20375000
0(
#20437500
b11 @
1(
#20500000
0(
#20562500
b10 T
b1 V
0B
b0 @
1?
b1000 Y
1(
1.
#20625000
0(
#20687500
b1 @
1(
#20750000
0(
#20812500
b10 @
1(
#20875000
0(
#20937500
b11 @
1(
#21000000
0(
#21062500
b0 @
0?
bx00000000 \
1(
0.
#21125000
0(
#21187500
b1 @
1(
#21250000
0(
#21312500
b10 @
1(
#21375000
0(
#21437500
b11 @
1(
#21500000
0(
#21562500
b1110000100 0
b1110000100 =
b1110000100 H
b1000 &
b1000 5
b1000 <
b1000 E
b1000 :
b1000 F
b1000 S
1"
b11 T
b10 V
b0 @
1?
1(
#21625000
0(
#21687500
b1 @
1(
#21750000
0(
#21812500
b10 @
1(
#21875000
0(
#21937500
b11 @
1(
#22000000
0(
#22062500
b0 @
0?
b1001 Y
1(
1.
#22125000
0(
#22187500
b1 @
1(
#22250000
0(
#22312500
b10 @
1(
#22375000
0(
#22437500
b11 @
1(
#22500000
0(
#22562500
b100 T
0"
b11 V
b1000 W
b0 @
1?
bx000000000 \
1(
0.
#22625000
0(
#22687500
b1 @
1(
#22750000
0(
#22812500
b10 @
1(
#22875000
0(
#22937500
b11 @
1(
#23000000
0(
#23062500
b0 @
0?
1(
#23125000
0(
#23187500
b1 @
1(
#23250000
0(
#23312500
b10 @
1(
#23375000
0(
#23437500
b11 @
1(
#23500000
0(
#23562500
b111000010 0
b111000010 =
b111000010 H
b100 &
b100 5
b100 <
b100 E
b100 :
b100 F
b100 S
b101 T
b100 W
b100 V
b0 @
1?
b1010 Y
1(
1.
#23625000
0(
#23687500
b1 @
1(
#23750000
0(
#23812500
b10 @
1(
#23875000
0(
#23937500
b11 @
1(
#24000000
0(
#24062500
b0 @
0?
bx0000000000 \
1(
0.
#24125000
0(
#24187500
b1 @
1(
#24250000
0(
#24312500
b10 @
1(
#24375000
0(
#24437500
b11 @
1(
#24500000
0(
#24562500
b11100001 0
b11100001 =
b11100001 H
b110 T
b10 &
b10 5
b10 <
b10 E
b10 :
b10 F
b10 S
b101 V
b10 W
b0 @
1?
1(
#24625000
0(
#24687500
b1 @
1(
#24750000
0(
#24812500
b10 @
1(
#24875000
0(
#24937500
b11 @
1(
#25000000
0(
#25062500
b0 @
0?
b1011 Y
1(
1.
#25125000
0(
#25187500
b1 @
1(
#25250000
0(
#25312500
b10 @
1(
#25375000
0(
#25437500
b11 @
1(
#25500000
0(
#25562500
b1110000 0
b1110000 =
b1110000 H
b1 &
b1 5
b1 <
b1 E
b1 :
b1 F
b1 S
b111 T
b1 W
b110 V
b0 @
1?
bx00000000000 \
1(
0.
#25625000
0(
#25687500
b1 @
1(
#25750000
0(
#25812500
b10 @
1(
#25875000
0(
#25937500
b11 @
1(
#26000000
0(
#26062500
b0 @
0?
1(
#26125000
0(
#26187500
b1 @
1(
#26250000
0(
#26312500
b10 @
1(
#26375000
0(
#26437500
b11 @
1(
#26500000
0(
#26562500
b10000010000010 C
b10000010000010 X
b10000010 D
b0 0
b0 =
b0 H
b0 T
1%
b0 &
b0 5
b0 <
b0 E
b0 :
b0 F
b0 S
b111 V
b0 W
b0 @
1?
b1100 Y
1(
1.
#26625000
0(
#26687500
b1 @
1(
#26750000
0(
#26812500
b10 @
1(
#26875000
0(
#26937500
b11 @
1(
#27000000
0(
#27062500
b0 @
0?
bx000000000000 \
1(
0.
#27125000
0(
#27187500
b1 @
1(
#27250000
0(
#27312500
b10 @
1(
#27375000
0(
#27437500
b11 @
1(
#27500000
0(
#27562500
b0 #
b0 ;
b0 J
b0 C
b0 X
b0 D
0%
1$
06
0A
b0 4
b0 I
b0 >
b0 V
b0 @
1?
1(
#27625000
0(
#27687500
b1 @
1(
#27750000
0(
#27812500
b10 @
1(
#27875000
0(
#27937500
b11 @
1(
#28000000
0(
#28062500
b0 @
0?
b1101 Y
1(
1.
#28125000
0(
#28187500
b1 @
1(
#28250000
0(
#28312500
b10 @
1(
#28375000
0(
#28437500
b11 @
1(
#28500000
0(
#28562500
b1 #
b1 ;
b1 J
b1 T
16
1A
1B
0$
b0 @
1?
bx0000000000000 \
1(
0.
#28625000
0(
#28687500
b1 @
1(
#28750000
0(
#28812500
b10 @
1(
#28875000
0(
#28937500
b11 @
1(
#29000000
0(
#29062500
b0 @
0?
1(
#29125000
0(
#29187500
b1 @
1(
#29250000
0(
#29312500
b10 @
1(
#29375000
0(
#29437500
b11 @
1(
#29500000
0(
#29562500
b10 T
0B
b1 V
b0 @
1?
b1110 Y
1(
1.
#29625000
0(
#29687500
b1 @
1(
#29750000
0(
#29812500
b10 @
1(
#29875000
0(
#29937500
b11 @
1(
#30000000
0(
#30062500
b0 @
0?
bx00000000000000 \
1(
0.
#30125000
0(
#30187500
b1 @
1(
#30250000
0(
#30312500
b10 @
1(
#30375000
0(
#30437500
b11 @
1(
#30500000
0(
#30562500
b1110000100 0
b1110000100 =
b1110000100 H
b1000 &
b1000 5
b1000 <
b1000 E
b1000 :
b1000 F
b1000 S
1"
b11 T
b10 V
b0 @
1?
1(
#30625000
0(
#30687500
b1 @
1(
#30750000
0(
#30812500
b10 @
1(
#30875000
0(
#30937500
b11 @
1(
#31000000
0(
#31062500
b0 @
0?
b1111 Y
1(
1.
#31125000
0(
#31187500
b1 @
1(
#31250000
0(
#31312500
b10 @
1(
#31375000
0(
#31437500
b11 @
1(
#31500000
0(
#31562500
0"
b100 T
b1000 W
b11 V
b0 @
1?
bx000000000000000 \
1(
0.
#31625000
0(
#31687500
b1 @
1(
#31750000
0(
#31812500
b10 @
1(
#31875000
0(
#31937500
b11 @
1(
#32000000
0(
#32062500
b0 @
0?
1(
#32125000
0(
#32187500
b1 @
1(
#32250000
0(
#32312500
b10 @
1(
#32375000
0(
#32437500
b11 @
1(
#32500000
0(
#32562500
b111000010 0
b111000010 =
b111000010 H
b101 T
b100 &
b100 5
b100 <
b100 E
b100 :
b100 F
b100 S
b100 V
b100 W
b0 @
1?
17
b0 8
b0 Z
b10000 Y
1(
1.
#32625000
0(
#32687500
b1 @
1(
#32750000
0(
#32812500
b10 @
1(
#32875000
0(
#32937500
b11 @
1(
#33000000
0(
#33062500
0!
b0 @
0?
b0 \
1(
0.
#33125000
0(
#33187500
b1 @
1(
#33250000
0(
#33312500
b10 @
1(
#33375000
0(
#33437500
b11 @
1(
#33500000
0(
#33562500
b11100001 0
b11100001 =
b11100001 H
b10 &
b10 5
b10 <
b10 E
b10 :
b10 F
b10 S
b110 T
b10 W
b101 V
b0 @
1?
07
b0 Y
z!
1(
1+
#33625000
0(
#33687500
b1 @
1(
#33750000
0(
#33812500
b10 @
1(
#33875000
0(
#33937500
b11 @
1(
#34000000
0(
#34062500
b0 @
0?
1(
#34125000
0(
#34187500
b1 @
1(
#34250000
0(
#34312500
b10 @
1(
#34375000
0(
#34437500
b11 @
1(
#34500000
0(
#34562500
1)
b1110000 0
b1110000 =
b1110000 H
b111 T
b1 &
b1 5
b1 <
b1 E
b1 :
b1 F
b1 S
b110 V
b1 W
b0 @
1?
1(
b1110001 /
b1 ]
b1 1
#34625000
0(
#34687500
b1 @
1(
#34750000
0(
#34812500
b10 @
1(
#34875000
0(
#34937500
b11 @
1(
#35000000
0(
#35062500
b0 @
0?
1(
#35125000
0(
#35187500
b1 @
1(
#35250000
0(
#35312500
b10 @
1(
#35375000
0(
#35437500
b11 @
1(
#35500000
0(
#35562500
b10000000 C
b10000000 X
b10000000 D
1%
b0 T
b111 V
b0 @
1?
1(
#35625000
0(
#35687500
b1 @
1(
#35750000
0(
#35812500
b10 @
1(
#35875000
0(
#35937500
b11 @
1(
#36000000
0(
#36062500
b0 @
0?
0!
0+
1(
#36125000
0(
#36187500
b1 @
1(
#36250000
0(
#36312500
b10 @
1(
#36375000
0(
#36437500
b11 @
1(
#36500000
0(
#36562500
0%
b0 #
b0 ;
b0 J
b1000100000001 C
b1000100000001 X
b1 D
b0 V
b1 9
b1 U
06
0A
b1 4
b1 I
b1 >
1$
b0 @
1?
1(
#36625000
0(
#36687500
b1 @
1(
#36750000
0(
#36812500
b10 @
1(
#36875000
0(
#36937500
b11 @
1(
#37000000
0(
#37062500
b0 @
0?
b1 Y
1(
1.
#37125000
0(
#37187500
b1 @
1(
#37250000
0(
#37312500
b10 @
1(
#37375000
0(
#37437500
b11 @
1(
#37500000
0(
#37562500
b10 #
b10 ;
b10 J
b1 T
0$
16
1A
1B
b0 @
1?
1(
0.
#37625000
0(
#37687500
b1 @
1(
#37750000
0(
#37812500
b10 @
1(
#37875000
0(
#37937500
b11 @
1(
#38000000
0(
#38062500
b0 @
0?
1(
#38125000
0(
#38187500
b1 @
1(
#38250000
0(
#38312500
b10 @
1(
#38375000
0(
#38437500
b11 @
1(
#38500000
0(
#38562500
b10 T
b1 V
0B
b0 @
1?
b10 Y
1(
1.
#38625000
0(
#38687500
b1 @
1(
#38750000
0(
#38812500
b10 @
1(
#38875000
0(
#38937500
b11 @
1(
#39000000
0(
#39062500
b0 @
0?
1(
0.
#39125000
0(
#39187500
b1 @
1(
#39250000
0(
#39312500
b10 @
1(
#39375000
0(
#39437500
b11 @
1(
#39500000
0(
#39562500
0)
b1110000100 0
b1110000100 =
b1110000100 H
1"
b1000 &
b1000 5
b1000 <
b1000 E
b1000 :
b1000 F
b1000 S
b11 T
b0 W
b10 V
b0 @
1?
1(
#39625000
0(
#39687500
b1 @
1(
#39750000
0(
#39812500
b10 @
1(
#39875000
0(
#39937500
b11 @
1(
#40000000
0(
#40062500
b0 @
0?
b11 Y
1(
1.
#40125000
0(
#40187500
b1 @
1(
#40250000
0(
#40312500
b10 @
1(
#40375000
0(
#40437500
b11 @
1(
#40500000
0(
#40562500
b100 T
0"
b11 V
b1000 W
b0 @
1?
1(
0.
#40625000
0(
#40687500
b1 @
1(
#40750000
0(
#40812500
b10 @
1(
#40875000
0(
#40937500
b11 @
1(
#41000000
0(
#41062500
b0 @
0?
1(
#41125000
0(
#41187500
b1 @
1(
#41250000
0(
#41312500
b10 @
1(
#41375000
0(
#41437500
b11 @
1(
#41500000
0(
#41562500
b111000010 0
b111000010 =
b111000010 H
b100 &
b100 5
b100 <
b100 E
b100 :
b100 F
b100 S
b101 T
b100 W
b100 V
b0 @
1?
b100 Y
1(
1.
#41625000
0(
#41687500
b1 @
1(
#41750000
0(
#41812500
b10 @
1(
#41875000
0(
#41937500
b11 @
1(
#42000000
0(
#42062500
b0 @
0?
1(
0.
#42125000
0(
#42187500
b1 @
1(
#42250000
0(
#42312500
b10 @
1(
#42375000
0(
#42437500
b11 @
1(
#42500000
0(
#42562500
b11100001 0
b11100001 =
b11100001 H
b110 T
b10 &
b10 5
b10 <
b10 E
b10 :
b10 F
b10 S
b101 V
b10 W
b0 @
1?
1(
#42625000
0(
#42687500
b1 @
1(
#42750000
0(
#42812500
b10 @
1(
#42875000
0(
#42937500
b11 @
1(
#43000000
0(
#43062500
b0 @
0?
b101 Y
1(
1.
#43125000
0(
#43187500
b1 @
1(
#43250000
0(
#43312500
b10 @
1(
#43375000
0(
#43437500
b11 @
1(
#43500000
0(
#43562500
1)
b1110000 0
b1110000 =
b1110000 H
b1 &
b1 5
b1 <
b1 E
b1 :
b1 F
b1 S
b111 T
b1 W
b110 V
b0 @
1?
1(
0.
#43625000
0(
#43687500
b1 @
1(
#43750000
0(
#43812500
b10 @
1(
#43875000
0(
#43937500
b11 @
1(
#44000000
0(
#44062500
b0 @
0?
1(
#44125000
0(
#44187500
b1 @
1(
#44250000
0(
#44312500
b10 @
1(
#44375000
0(
#44437500
b11 @
1(
#44500000
0(
#44562500
b1000110000001 C
b1000110000001 X
b10000001 D
1%
b0 T
b111 V
b0 @
1?
b110 Y
1(
1.
#44625000
0(
#44687500
b1 @
1(
#44750000
0(
#44812500
b10 @
1(
#44875000
0(
#44937500
b11 @
1(
#45000000
0(
#45062500
b0 @
0?
1(
0.
#45125000
0(
#45187500
b1 @
1(
#45250000
0(
#45312500
b10 @
1(
#45375000
0(
#45437500
b11 @
1(
#45500000
0(
#45562500
b0 #
b0 ;
b0 J
b10000100000010 C
b10000100000010 X
b10 D
0%
1$
06
0A
b10 4
b10 I
b10 >
b0 V
b0 @
1?
1(
#45625000
0(
#45687500
b1 @
1(
#45750000
0(
#45812500
b10 @
1(
#45875000
0(
#45937500
b11 @
1(
#46000000
0(
#46062500
b0 @
0?
b111 Y
1(
1.
#46125000
0(
#46187500
b1 @
1(
#46250000
0(
#46312500
b10 @
1(
#46375000
0(
#46437500
b11 @
1(
#46500000
0(
#46562500
b100 #
b100 ;
b100 J
b1 T
16
1A
1B
0$
b0 @
1?
1(
0.
#46625000
0(
#46687500
b1 @
1(
#46750000
0(
#46812500
b10 @
1(
#46875000
0(
#46937500
b11 @
1(
#47000000
0(
#47062500
b0 @
0?
1(
#47125000
0(
#47187500
b1 @
1(
#47250000
0(
#47312500
b10 @
1(
#47375000
0(
#47437500
b11 @
1(
#47500000
0(
#47562500
b10 T
0B
b1 V
b0 @
1?
b1000 Y
1(
1.
#47625000
0(
#47687500
b1 @
1(
#47750000
0(
#47812500
b10 @
1(
#47875000
0(
#47937500
b11 @
1(
#48000000
0(
#48062500
b0 @
0?
1(
0.
#48125000
0(
#48187500
b1 @
1(
#48250000
0(
#48312500
b10 @
1(
#48375000
0(
#48437500
b11 @
1(
#48500000
0(
#48562500
0)
b1110000100 0
b1110000100 =
b1110000100 H
b11 T
1"
b1000 &
b1000 5
b1000 <
b1000 E
b1000 :
b1000 F
b1000 S
b10 V
b0 W
b0 @
1?
1(
#48625000
0(
#48687500
b1 @
1(
#48750000
0(
#48812500
b10 @
1(
#48875000
0(
#48937500
b11 @
1(
#49000000
0(
#49062500
b0 @
0?
b1001 Y
1(
1.
#49125000
0(
#49187500
b1 @
1(
#49250000
0(
#49312500
b10 @
1(
#49375000
0(
#49437500
b11 @
1(
#49500000
0(
#49562500
0"
b100 T
b1000 W
b11 V
b0 @
1?
1(
0.
#49625000
0(
#49687500
b1 @
1(
#49750000
0(
#49812500
b10 @
1(
#49875000
0(
#49937500
b11 @
1(
#50000000
0(
#50062500
b0 @
0?
1(
#50125000
0(
#50187500
b1 @
1(
#50250000
0(
#50312500
b10 @
1(
#50375000
0(
#50437500
b11 @
1(
#50500000
0(
#50562500
b111000010 0
b111000010 =
b111000010 H
b101 T
b100 &
b100 5
b100 <
b100 E
b100 :
b100 F
b100 S
b100 V
b100 W
b0 @
1?
b1010 Y
1(
1.
#50625000
0(
#50687500
b1 @
1(
#50750000
0(
#50812500
b10 @
1(
#50875000
0(
#50937500
b11 @
1(
#51000000
0(
#51062500
b0 @
0?
1(
0.
#51125000
0(
#51187500
b1 @
1(
#51250000
0(
#51312500
b10 @
1(
#51375000
0(
#51437500
b11 @
1(
#51500000
0(
#51562500
b11100001 0
b11100001 =
b11100001 H
b10 &
b10 5
b10 <
b10 E
b10 :
b10 F
b10 S
b110 T
b10 W
b101 V
b0 @
1?
1(
#51625000
0(
#51687500
b1 @
1(
#51750000
0(
#51812500
b10 @
1(
#51875000
0(
#51937500
b11 @
1(
#52000000
0(
#52062500
b0 @
0?
b1011 Y
1(
1.
#52125000
0(
#52187500
b1 @
1(
#52250000
0(
#52312500
b10 @
1(
#52375000
0(
#52437500
b11 @
1(
#52500000
0(
#52562500
1)
b1110000 0
b1110000 =
b1110000 H
b111 T
b1 &
b1 5
b1 <
b1 E
b1 :
b1 F
b1 S
b110 V
b1 W
b0 @
1?
1(
0.
#52625000
0(
#52687500
b1 @
1(
#52750000
0(
#52812500
b10 @
1(
#52875000
0(
#52937500
b11 @
1(
#53000000
0(
#53062500
b0 @
0?
1(
#53125000
0(
#53187500
b1 @
1(
#53250000
0(
#53312500
b10 @
1(
#53375000
0(
#53437500
b11 @
1(
#53500000
0(
#53562500
b10000110000010 C
b10000110000010 X
b10000010 D
1%
b0 T
b111 V
b0 @
1?
b1100 Y
1(
1.
#53625000
0(
#53687500
b1 @
1(
#53750000
0(
#53812500
b10 @
1(
#53875000
0(
#53937500
b11 @
1(
#54000000
0(
#54062500
b0 @
0?
1(
0.
#54125000
0(
#54187500
b1 @
1(
#54250000
0(
#54312500
b10 @
1(
#54375000
0(
#54437500
b11 @
1(
#54500000
0(
